007400000000000070000010000830000000014000028000200360500003700300004510480056030,157482693248639175963517842832961457614375928795248361526193784379824516481756239
070000260604000100000002000062000001500000030300070400056200070000100050000080003,973814265624753189815692347762348591541926738389571426156239874438167952297485613
000010090010604300000008007000000080000750401006003900030046000090000500500080600,427315896918674352365298147759461283283759461146823975832546719694137528571982634
708400000100008400020900003000700091000000807000000030070001006910006702006020000,758413269139268475624975183485732691391654827267189534872591346913846752546327918
785003002002060003400200700030000600000005000070000300006001000301070804020800500,785493162192567483463218759538749621614325978279186345846951237351672894927834516
000500000450217600310000000537400000200008053680000000000604100060005000704000000,976543281458217639312896574537429816241768953689351742825634197163975428794182365
008600930010000008200000050000900007300000100100000690000008005093020060005706200,578642931916375428234189756462913587359867142187254693621498375793521864845736219
600704005002008096030060020006000700010070304804000200000400000050106000000050000,691724835742538196538961427326849751915672384874315269267493518453186972189257643
200080091003000007700029000000004003810007500000012008000001000100008902000030050,254783691693145827781629435567894213812367549349512768425971386136458972978236154
008010309020050010004000000071000800500008043000570190000090000892000050305080000,658714329927853614134962587271349865569128743483576192716495238892637451345281976
000030000250000600000007009000013000697800002308090060003001500070000006000050003,786539241259184637134267859542613978697845312318792465863971524475328196921456783
800005720204019800000008900000020000007004105000000460000000040600070280050000000,819635724234719856576248931465921378327864195198357462782196543641573289953482617
000000006000600083400300070000003005230807000005100040002070010000010000080000764,923781456157694283468325179716943825234857691895162347342576918679418532581239764
000000000100090006086007004260400003003610000900300000000001308049080000010902040,492156837137894256586237914261479583873615429954328671625741398749583162318962745
030000500052498703000200090000000000000650000060700000370006000009040007045300280,934167528152498763786235194513982476497653812268714359371826945829541637645379281
100000000059148020030000008020800060014050000000620000000062090300000002500910000,148236759759148326236597148923871465614359287875624931481762593397485612562913874
000100000000005280000600010940000700057006004106008520000050040800009007000071002,685124973471395286392687415948532761257916834136748529719253648823469157564871392
300019860000000090040680320600000002407000086010000000026000003000830000070000010,352719864768243591941685327689371452437592186215468739826157943194836275573924618
098003000700900000203700400060080030080070005000000680027500900000000702004000306,698243571745961823213758469469185237382674195571392684127536948836419752954827316
300900085407050600008130007000080090000000706600475003010063000003000000500000000,361947285497258631258136947735681492184392756629475813912863574873524169546719328
000100000001004060050006000900003750300060001760040020400027000000000090030005004,647152938291834567853976142914283756325769481768541329489327615576418293132695874
300000840005000210000604003001300000090000005860000090004109060008050000100000028,316275849745938216982614753521397684493826175867541392234189567678452931159763428
002000603700000002510000740040000000000102000005000860801006400007024050400800030,982475613734691582516283749143768925698152374275349861821536497367924158459817236
000000000100420096000036000203710950000000067709000100000900200004500000000204519,376859421158427396492136785263718954541392867789645132615973248924581673837264519
803600500700080260620050000100700020500060070070003004000000041000200300000500000,843629517715384269629157438134795826598462173276813954352978641967241385481536792
049000006750090000000600080270800001000200500005006024000900000100000000020010640,849521736756398412312647985274859361681234597935176824467982153193465278528713649
007082004832090000400000010020000390700500000150304008000000040000003000000000107,517682934832491756496735812624817395783529461159364278961278543275143689348956127
002000070467000009050800000800400000000000000096000350020030600070060508008502007,382649175467153289951827463835496712214375896796281354529738641173964528648512937
801000000000093000700600020206150037009307006000000000150000000608002709000705001,821574693465293178793681524286159437519347286374826915157968342638412759942735861
090003600600040570300200009000702000710000000000300000060007100001450306403100000,194573628628941573357268419536712894719684235842395761965837142271459386483126957
080469000302080000000200400009050004050096000000300000020000000600045900004007068,785469312342581796196273485819752634453896271267314859921638547678145923534927168
060200000000010070009030062407902000010503000006000700000020000050400000024691000,763259418245816379189734562437962185812573694596148723678325941951487236324691857
300008002500060000607013004050036020000054080008200060000000300000000008400000706,391548672584762139627913854759836421263154987148297563876429315935671248412385796
700000049000007020040300001000900000070000580302108000000015000008003000094800070,723581649519647823846329751485976132971234586362158497237415968658793214194862375
000100300600020004234000005378200001140300000005000000700000800006010020080060040,859174362617523984234689715378296451142358679965741238721435896496817523583962147
070109530000430070040000001480071000100000009060000008850900000000060300637000000,276189534591432876348756921489671253125348769763295418852913647914567382637824195
070000000002906307004000500190000002006002050053000001030000000000700019401050600,679583124512946387384127596198675432746312958253498761937261845865734219421859673
867400000000000009010000050040089502000002000600050090080100600000000070000000148,867495231435216789219837456341789562598642317672351894983174625124568973756923148
107000090300084100000200047000008000450090008730105000090400000005000004000070000,147563892329784156586219347962348715451697238738125469893452671675831924214976583
006000400400031000000005001060350000000000002203040010050017003100000870680200000,316789425425631798798425631861352947549176382273948516954817263132564879687293154
600703004100085003075400009000000006040890300000000900901000087006000001000008500,698723154124985763375461829819357246742896315563142978951234687286579431437618592
201000000530019002900400000106200500004000000000075000400006201600050700070003000,241538697537619482968427315186294573754361829329875164495786231613952748872143956
030000067000000430008009500096130000000906700000000003100000075000597080000401000,439215867215768439678349512796134258823956741541872693184623975362597184957481326
000630002000029700000800000800700090000068500002090107000203950000000000095000076,519637842483129765267845319854712693971368524632594187146273958728956431395481276
490063800000100600103040002000900006200000000900850000502000000080300014300010500,497263851825197643163548972751932486238476195946851237512784369689325714374619528
600197030700000600000800000000300000009076048000000000090003010080500400003010056,628197534715432689934865721861354297359276148472981365597643812186529473243718956
800702000009010040050400003201080000030000000000305008000040000904251070700090000,846732951379518642152469783261984537538176429497325168613847295984251376725693814
700020000850070300000000060000100803000487001000206040000310002000000508003005000,746923185852671394931548267467159823329487651518236749685314972194762538273895416
070000900306009004009460020735000090000040000200800000040000070090207500000500000,478352961326179854159468327735621498981745632264893715542986173893217546617534289
008070000042100003070340050800000000015003000600000048000000085001704000030002000,358279461942165873176348952827416539415893627693527148764931285281754396539682714
